%YAML 1.1
%TAG !u! tag:unity3d.com,2011:
--- !u!78 &1
TagManager:
  serializedVersion: 2
  tags:
  - Floor
  layers:
  - Default
  - TransparentFX
  - Ignore Raycast
  - 
  - Water
  - UI
  - 
  - 
  - 
  - 
  - 
  - 
  - 
  - 
  - 
  - 
  - 
  - 
  - 
  - 
  - 
  - 
  - 
  - 
  - 
  - 
  - 
  - 
  - 
  - 
  - 
  - 
  m_SortingLayers:
  - name: Default
    uniqueID: 0
    locked: 0
  - name: SceneryBack
    uniqueID: 1617861817
    locked: 0
  - name: Characters
    uniqueID: 3619742423
    locked: 0
  - name: SceneryFront
    uniqueID: 3843821965
    locked: 0
  - name: UserInterface
    uniqueID: 3727641231
    locked: 0
